<define-tag pagetitle>DLA-1013-1 graphite2</define-tag>
<define-tag report_date>2017-7-5</define-tag>
<define-tag secrefs>CVE-2017-7771 CVE-2017-7772 CVE-2017-7773 CVE-2017-7774 CVE-2017-7775 CVE-2017-7776 CVE-2017-7777 CVE-2017-7778</define-tag>
<define-tag packages>graphite2</define-tag>
<define-tag isvulnerable>yes</define-tag>
<define-tag fixed>yes</define-tag>
<define-tag fixed-section>no</define-tag>

#use wml::debian::security

