<define-tag pagetitle>DLA-990-1 expat</define-tag>
<define-tag report_date>2017-6-18</define-tag>
<define-tag secrefs>CVE-2017-9233</define-tag>
<define-tag packages>expat</define-tag>
<define-tag isvulnerable>yes</define-tag>
<define-tag fixed>yes</define-tag>
<define-tag fixed-section>no</define-tag>

#use wml::debian::security

