<define-tag pagetitle>DLA-983-1 tiff3</define-tag>
<define-tag report_date>2017-6-13</define-tag>
<define-tag secrefs>CVE-2016-10095 CVE-2017-9147 CVE-2017-9403 CVE-2017-9404</define-tag>
<define-tag packages>tiff3</define-tag>
<define-tag isvulnerable>yes</define-tag>
<define-tag fixed>yes</define-tag>
<define-tag fixed-section>no</define-tag>

#use wml::debian::security

