<define-tag pagetitle>DLA-1523-1 asterisk</define-tag>
<define-tag report_date>2018-9-27</define-tag>
<define-tag secrefs>CVE-2018-17281 Bug#909554</define-tag>
<define-tag packages>asterisk</define-tag>
<define-tag isvulnerable>yes</define-tag>
<define-tag fixed>yes</define-tag>
<define-tag fixed-section>no</define-tag>

#use wml::debian::security

