<define-tag pagetitle>DLA-599-1 cracklib2</define-tag>
<define-tag report_date>2016-8-20</define-tag>
<define-tag secrefs>CVE-2016-6318 Bug#834502</define-tag>
<define-tag packages>cracklib2</define-tag>
<define-tag isvulnerable>yes</define-tag>
<define-tag fixed>yes</define-tag>
<define-tag fixed-section>no</define-tag>

#use wml::debian::security

